%YAML 1.1
%TAG !u! tag:unity3d.com,2011:
--- !u!95 &393065184
Animator:
  serializedVersion: 3
  m_ObjectHideFlags: 0
  m_CorrespondingSourceObject: {fileID: 0}
  m_PrefabInstance: {fileID: 0}
  m_PrefabAsset: {fileID: 0}
  m_GameObject: {fileID: 7840915962893032654}
  m_Enabled: 1
  m_Avatar: {fileID: 0}
  m_Controller: {fileID: 9100000, guid: dc2e26b570ebb37479b12752eed7692b, type: 2}
  m_CullingMode: 0
  m_UpdateMode: 0
  m_ApplyRootMotion: 1
  m_LinearVelocityBlending: 0
  m_WarningMessage: 
  m_HasTransformHierarchy: 1
  m_AllowConstantClipSamplingOptimization: 1
  m_KeepAnimatorControllerStateOnDisable: 0
--- !u!1001 &6922576162323489183
PrefabInstance:
  m_ObjectHideFlags: 0
  serializedVersion: 2
  m_Modification:
    m_TransformParent: {fileID: 0}
    m_Modifications:
    - target: {fileID: -8679921383154817045, guid: 495b3137888576b42b5d04dca7fa7a75,
        type: 3}
      propertyPath: m_LocalPosition.x
      value: 21.6
      objectReference: {fileID: 0}
    - target: {fileID: -8679921383154817045, guid: 495b3137888576b42b5d04dca7fa7a75,
        type: 3}
      propertyPath: m_LocalPosition.y
      value: 0.23
      objectReference: {fileID: 0}
    - target: {fileID: -8679921383154817045, guid: 495b3137888576b42b5d04dca7fa7a75,
        type: 3}
      propertyPath: m_LocalPosition.z
      value: 0
      objectReference: {fileID: 0}
    - target: {fileID: -8679921383154817045, guid: 495b3137888576b42b5d04dca7fa7a75,
        type: 3}
      propertyPath: m_LocalRotation.x
      value: 0
      objectReference: {fileID: 0}
    - target: {fileID: -8679921383154817045, guid: 495b3137888576b42b5d04dca7fa7a75,
        type: 3}
      propertyPath: m_LocalRotation.y
      value: -0
      objectReference: {fileID: 0}
    - target: {fileID: -8679921383154817045, guid: 495b3137888576b42b5d04dca7fa7a75,
        type: 3}
      propertyPath: m_LocalRotation.z
      value: -0
      objectReference: {fileID: 0}
    - target: {fileID: -8679921383154817045, guid: 495b3137888576b42b5d04dca7fa7a75,
        type: 3}
      propertyPath: m_LocalRotation.w
      value: 1
      objectReference: {fileID: 0}
    - target: {fileID: -8679921383154817045, guid: 495b3137888576b42b5d04dca7fa7a75,
        type: 3}
      propertyPath: m_RootOrder
      value: 0
      objectReference: {fileID: 0}
    - target: {fileID: -8679921383154817045, guid: 495b3137888576b42b5d04dca7fa7a75,
        type: 3}
      propertyPath: m_LocalEulerAnglesHint.x
      value: 0
      objectReference: {fileID: 0}
    - target: {fileID: -8679921383154817045, guid: 495b3137888576b42b5d04dca7fa7a75,
        type: 3}
      propertyPath: m_LocalEulerAnglesHint.y
      value: 0
      objectReference: {fileID: 0}
    - target: {fileID: -8679921383154817045, guid: 495b3137888576b42b5d04dca7fa7a75,
        type: 3}
      propertyPath: m_LocalEulerAnglesHint.z
      value: 0
      objectReference: {fileID: 0}
    - target: {fileID: -8679921383154817045, guid: 495b3137888576b42b5d04dca7fa7a75,
        type: 3}
      propertyPath: m_LocalScale.x
      value: 4.3444357
      objectReference: {fileID: 0}
    - target: {fileID: -8679921383154817045, guid: 495b3137888576b42b5d04dca7fa7a75,
        type: 3}
      propertyPath: m_LocalScale.y
      value: 4.3444357
      objectReference: {fileID: 0}
    - target: {fileID: -8679921383154817045, guid: 495b3137888576b42b5d04dca7fa7a75,
        type: 3}
      propertyPath: m_LocalScale.z
      value: 4.3444357
      objectReference: {fileID: 0}
    - target: {fileID: -5266785677919700964, guid: 495b3137888576b42b5d04dca7fa7a75,
        type: 3}
      propertyPath: m_StaticEditorFlags
      value: 4294967295
      objectReference: {fileID: 0}
    - target: {fileID: -3901992563441801604, guid: 495b3137888576b42b5d04dca7fa7a75,
        type: 3}
      propertyPath: m_Materials.Array.data[0]
      value: 
      objectReference: {fileID: 2100000, guid: cfa2766bedc272040af09ca8a2ad4d83, type: 2}
    - target: {fileID: -3901992563441801604, guid: 495b3137888576b42b5d04dca7fa7a75,
        type: 3}
      propertyPath: m_CastShadows
      value: 1
      objectReference: {fileID: 0}
    - target: {fileID: -3901992563441801604, guid: 495b3137888576b42b5d04dca7fa7a75,
        type: 3}
      propertyPath: m_Enabled
      value: 1
      objectReference: {fileID: 0}
    - target: {fileID: -3901992563441801604, guid: 495b3137888576b42b5d04dca7fa7a75,
        type: 3}
      propertyPath: m_ReceiveGI
      value: 2
      objectReference: {fileID: 0}
    - target: {fileID: -3901992563441801604, guid: 495b3137888576b42b5d04dca7fa7a75,
        type: 3}
      propertyPath: m_DynamicOccludee
      value: 1
      objectReference: {fileID: 0}
    - target: {fileID: 919132149155446097, guid: 495b3137888576b42b5d04dca7fa7a75,
        type: 3}
      propertyPath: m_Name
      value: plane
      objectReference: {fileID: 0}
    - target: {fileID: 919132149155446097, guid: 495b3137888576b42b5d04dca7fa7a75,
        type: 3}
      propertyPath: m_StaticEditorFlags
      value: 4294967295
      objectReference: {fileID: 0}
    - target: {fileID: 919132149155446097, guid: 495b3137888576b42b5d04dca7fa7a75,
        type: 3}
      propertyPath: m_IsActive
      value: 1
      objectReference: {fileID: 0}
    - target: {fileID: 2042023225869285003, guid: 495b3137888576b42b5d04dca7fa7a75,
        type: 3}
      propertyPath: m_LocalPosition.y
      value: 0.133
      objectReference: {fileID: 0}
    m_RemovedComponents: []
  m_SourcePrefab: {fileID: 100100000, guid: 495b3137888576b42b5d04dca7fa7a75, type: 3}
--- !u!1 &7840915962893032654 stripped
GameObject:
  m_CorrespondingSourceObject: {fileID: 919132149155446097, guid: 495b3137888576b42b5d04dca7fa7a75,
    type: 3}
  m_PrefabInstance: {fileID: 6922576162323489183}
  m_PrefabAsset: {fileID: 0}
