%YAML 1.1
%TAG !u! tag:unity3d.com,2011:
--- !u!21 &2100000
Material:
  serializedVersion: 6
  m_ObjectHideFlags: 0
  m_CorrespondingSourceObject: {fileID: 0}
  m_PrefabInstance: {fileID: 0}
  m_PrefabAsset: {fileID: 0}
  m_Name: aiStandardSurface1 2
  m_Shader: {fileID: 4800000, guid: 6ee274c501732384d9c8bb02a4576937, type: 3}
  m_ShaderKeywords: _MK_ALBEDO_MAP _MK_LIGHTMODEL_PHONG _MK_LIGHTTYPE_CEL_SHADE_SIMPLE
    _MK_REFLECTIVE_DEFAULT _USEOUTLINE_ON
  m_LightmapFlags: 4
  m_EnableInstancingVariants: 0
  m_DoubleSidedGI: 0
  m_CustomRenderQueue: 2000
  stringTagMap:
    IGNOREPROJECTOR: False
    QUEUE: Geometry
    RenderType: Opaque
  disabledShaderPasses: []
  m_SavedProperties:
    serializedVersion: 3
    m_TexEnvs:
    - _AnisoMap:
        m_Texture: {fileID: 0}
        m_Scale: {x: 1, y: 1}
        m_Offset: {x: 0, y: 0}
    - _BumpMap:
        m_Texture: {fileID: 0}
        m_Scale: {x: 1, y: 1}
        m_Offset: {x: 0, y: 0}
    - _DetailAlbedoMap:
        m_Texture: {fileID: 0}
        m_Scale: {x: 1, y: 1}
        m_Offset: {x: 0, y: 0}
    - _DetailMask:
        m_Texture: {fileID: 0}
        m_Scale: {x: 1, y: 1}
        m_Offset: {x: 0, y: 0}
    - _DetailNormalMap:
        m_Texture: {fileID: 0}
        m_Scale: {x: 1, y: 1}
        m_Offset: {x: 0, y: 0}
    - _DissolveMap:
        m_Texture: {fileID: 0}
        m_Scale: {x: 1, y: 1}
        m_Offset: {x: 0, y: 0}
    - _DissolveRamp:
        m_Texture: {fileID: 0}
        m_Scale: {x: 1, y: 1}
        m_Offset: {x: 0, y: 0}
    - _EmissionMap:
        m_Texture: {fileID: 0}
        m_Scale: {x: 1, y: 1}
        m_Offset: {x: 0, y: 0}
    - _MainTex:
        m_Texture: {fileID: 2800000, guid: b16c22b4e3fa11d4b9e83f6fcfac8cc6, type: 3}
        m_Scale: {x: 1, y: 1}
        m_Offset: {x: 0, y: 0}
    - _MetallicGlossMap:
        m_Texture: {fileID: 0}
        m_Scale: {x: 1, y: 1}
        m_Offset: {x: 0, y: 0}
    - _OcclusionMap:
        m_Texture: {fileID: 0}
        m_Scale: {x: 1, y: 1}
        m_Offset: {x: 0, y: 0}
    - _ParallaxMap:
        m_Texture: {fileID: 0}
        m_Scale: {x: 1, y: 1}
        m_Offset: {x: 0, y: 0}
    - _Ramp:
        m_Texture: {fileID: 0}
        m_Scale: {x: 1, y: 1}
        m_Offset: {x: 0, y: 0}
    - _ReflectMap:
        m_Texture: {fileID: 0}
        m_Scale: {x: 1, y: 1}
        m_Offset: {x: 0, y: 0}
    - _SketchMap:
        m_Texture: {fileID: 0}
        m_Scale: {x: 1, y: 1}
        m_Offset: {x: 0, y: 0}
    - _SpecGlossMap:
        m_Texture: {fileID: 0}
        m_Scale: {x: 1, y: 1}
        m_Offset: {x: 0, y: 0}
    - _TranslucentMap:
        m_Texture: {fileID: 0}
        m_Scale: {x: 1, y: 1}
        m_Offset: {x: 0, y: 0}
    m_Floats:
    - _AlbedoMap: 0
    - _AnisoOffset: -0.2
    - _Blend0: 1
    - _Blend1: 0
    - _Brightness: 1
    - _BumpScale: 1
    - _Contrast: 1
    - _CullMode: 2
    - _Cutoff: 0.5
    - _DetailNormalMapScale: 1
    - _DetailTint: 0.5
    - _DissolveAmount: 0.5
    - _DissolveRampSize: 0.25
    - _DstBlend: 0
    - _GlossMapScale: 1
    - _Glossiness: 0
    - _GlossyReflections: 1
    - _LightCuts: 1
    - _LightModel: 2
    - _LightSmoothness: 0
    - _LightThreshold: 0.13
    - _LightType: 1
    - _MKEditorShowDetailBehavior: 1
    - _MKEditorShowDissolveBehavior: 0
    - _MKEditorShowLightBehavior: 1
    - _MKEditorShowMainBehavior: 1
    - _MKEditorShowOutlineBehavior: 1
    - _MKEditorShowReflectionBehavior: 1
    - _MKEditorShowRenderBehavior: 1
    - _MKEditorShowRimBehavior: 0
    - _MKEditorShowShadowBehavior: 1
    - _MKEditorShowSketchBehavior: 0
    - _MKEditorShowSpecularBehavior: 1
    - _MKEditorShowTranslucentBehavior: 0
    - _Metallic: 0
    - _Mode: 0
    - _OcclusionStrength: 1
    - _OutlineSize: 0.49
    - _Parallax: 0.02
    - _ReflectIntensity: 0.5
    - _ReflectSmoothness: 1
    - _RimIntensity: 0.5
    - _RimSize: 1.5
    - _RimSmoothness: 0.5
    - _Roughness: 1
    - _Saturation: 1
    - _ShadowIntensity: 1
    - _Shininess: 1
    - _SketchScale: 16
    - _SketchToneMax: 1
    - _SketchToneMin: 0.5
    - _SmoothnessTextureChannel: 0
    - _SpecularHighlights: 1
    - _SpecularIntensity: 1
    - _SrcBlend: 1
    - _TranslucentIntensity: 0.5
    - _TranslucentShininess: 0.275
    - _UVSec: 0
    - _UseAnisotropicSpecular: 0
    - _UseBumpMap: 0
    - _UseDissolve: 0
    - _UseOutline: 1
    - _UseReflection: 1
    - _UseRim: 0
    - _UseSketch: 0
    - _UseTranslucent: 0
    - _ZWrite: 1
    m_Colors:
    - _Color: {r: 0.7830189, g: 0.37304202, b: 0.59095013, a: 1}
    - _DetailColor: {r: 1, g: 1, b: 1, a: 1}
    - _DissolveColor: {r: 1, g: 1, b: 1, a: 0.5}
    - _EmissionColor: {r: 0, g: 0, b: 0, a: 1}
    - _HighlightColor: {r: 1, g: 1, b: 1, a: 1}
    - _OutlineColor: {r: 0.752, g: 0.26319996, b: 0.26319996, a: 1}
    - _ReflectColor: {r: 1, g: 1, b: 1, a: 0.5}
    - _RimColor: {r: 1, g: 1, b: 1, a: 1}
    - _ShadowColor: {r: 0.3490566, g: 0.3490566, b: 0.3490566, a: 1}
    - _SpecColor: {r: 0.8584906, g: 0.8220452, b: 0.8220452, a: 0.5}
    - _TranslucentColor: {r: 1, g: 1, b: 1, a: 0.5}
  m_BuildTextureStacks: []
