%YAML 1.1
%TAG !u! tag:unity3d.com,2011:
--- !u!21 &2100000
Material:
  serializedVersion: 6
  m_ObjectHideFlags: 0
  m_CorrespondingSourceObject: {fileID: 0}
  m_PrefabInstance: {fileID: 0}
  m_PrefabAsset: {fileID: 0}
  m_Name: Shader Graphs_Water_Stylized
  m_Shader: {fileID: 4800000, guid: 881c73b45dda42d4ba29f8c7742329be, type: 3}
  m_ShaderKeywords: _MK_LIGHTMODEL_LAMBERT _MK_LIGHTTYPE_CEL_SHADE_SIMPLE
  m_LightmapFlags: 4
  m_EnableInstancingVariants: 0
  m_DoubleSidedGI: 0
  m_CustomRenderQueue: 2000
  stringTagMap:
    IGNOREPROJECTOR: False
    QUEUE: Geometry
    RenderType: Opaque
  disabledShaderPasses: []
  m_SavedProperties:
    serializedVersion: 3
    m_TexEnvs:
    - _AnisoMap:
        m_Texture: {fileID: 0}
        m_Scale: {x: 1, y: 1}
        m_Offset: {x: 0, y: 0}
    - _BumpMap:
        m_Texture: {fileID: 0}
        m_Scale: {x: 1, y: 1}
        m_Offset: {x: 0, y: 0}
    - _DetailAlbedoMap:
        m_Texture: {fileID: 0}
        m_Scale: {x: 1, y: 1}
        m_Offset: {x: 0, y: 0}
    - _DetailNormalMap:
        m_Texture: {fileID: 0}
        m_Scale: {x: 1, y: 1}
        m_Offset: {x: 0, y: 0}
    - _DissolveMap:
        m_Texture: {fileID: 0}
        m_Scale: {x: 1, y: 1}
        m_Offset: {x: 0, y: 0}
    - _DissolveRamp:
        m_Texture: {fileID: 0}
        m_Scale: {x: 1, y: 1}
        m_Offset: {x: 0, y: 0}
    - _EmissionMap:
        m_Texture: {fileID: 0}
        m_Scale: {x: 1, y: 1}
        m_Offset: {x: 0, y: 0}
    - _MainTex:
        m_Texture: {fileID: 0}
        m_Scale: {x: 1, y: 1}
        m_Offset: {x: 0, y: 0}
    - _OcclusionMap:
        m_Texture: {fileID: 0}
        m_Scale: {x: 1, y: 1}
        m_Offset: {x: 0, y: 0}
    - _Ramp:
        m_Texture: {fileID: 0}
        m_Scale: {x: 1, y: 1}
        m_Offset: {x: 0, y: 0}
    - _ReflectMap:
        m_Texture: {fileID: 0}
        m_Scale: {x: 1, y: 1}
        m_Offset: {x: 0, y: 0}
    - _SketchMap:
        m_Texture: {fileID: 0}
        m_Scale: {x: 1, y: 1}
        m_Offset: {x: 0, y: 0}
    - _SpecGlossMap:
        m_Texture: {fileID: 0}
        m_Scale: {x: 1, y: 1}
        m_Offset: {x: 0, y: 0}
    - _TranslucentMap:
        m_Texture: {fileID: 0}
        m_Scale: {x: 1, y: 1}
        m_Offset: {x: 0, y: 0}
    m_Floats:
    - Vector1_2C798FE5: 0
    - Vector1_457CBAC6: 1
    - Vector1_4F4DFE58: 50.7
    - Vector1_555A4D54: 5.62
    - Vector1_5F1E3389: 0.79
    - Vector1_A7E690EE: 0.001
    - Vector1_B87AE2BF: 19.29
    - Vector1_D2EA4819: 0.05
    - Vector1_DCCF304B: 20
    - _AlbedoMap: 0
    - _AnisoOffset: -0.2
    - _Blend0: 1
    - _Blend1: 0
    - _Brightness: 1
    - _BumpScale: 1
    - _Contrast: 1
    - _CullMode: 2
    - _Cutoff: 0.5
    - _DetailNormalMapScale: 1
    - _DetailTint: 0.5
    - _DissolveAmount: 0.5
    - _DissolveRampSize: 0.25
    - _LightCuts: 3
    - _LightModel: 1
    - _LightSmoothness: 0
    - _LightThreshold: 0.3
    - _LightType: 1
    - _MKEditorShowDetailBehavior: 0
    - _MKEditorShowDissolveBehavior: 0
    - _MKEditorShowLightBehavior: 0
    - _MKEditorShowMainBehavior: 1
    - _MKEditorShowOutlineBehavior: 0
    - _MKEditorShowReflectionBehavior: 0
    - _MKEditorShowRenderBehavior: 0
    - _MKEditorShowRimBehavior: 0
    - _MKEditorShowShadowBehavior: 0
    - _MKEditorShowSketchBehavior: 0
    - _MKEditorShowSpecularBehavior: 0
    - _MKEditorShowTranslucentBehavior: 0
    - _Mode: 0
    - _OcclusionStrength: 1
    - _OutlineSize: 0.02
    - _ReflectIntensity: 0.5
    - _ReflectSmoothness: 0
    - _RimIntensity: 0.5
    - _RimSize: 1.5
    - _RimSmoothness: 0.5
    - _Roughness: 1
    - _Saturation: 1
    - _ShadowIntensity: 1
    - _Shininess: 0.275
    - _SketchScale: 16
    - _SketchToneMax: 1
    - _SketchToneMin: 0.5
    - _SpecularIntensity: 0.5
    - _TranslucentIntensity: 0.5
    - _TranslucentShininess: 0.275
    - _UseAnisotropicSpecular: 0
    - _UseBumpMap: 0
    - _UseDissolve: 0
    - _UseOutline: 0
    - _UseReflection: 0
    - _UseRim: 0
    - _UseSketch: 0
    - _UseTranslucent: 0
    - _ZWrite: 1
    m_Colors:
    - Color_1E13E8BC: {r: 0.13998821, g: 0.8348624, b: 0.85882354, a: 0.21176471}
    - Color_D0EDAA7A: {r: 0.20224595, g: 0.33631694, b: 0.63399994, a: 0.4627451}
    - Color_D3A39EB: {r: 1, g: 1, b: 1, a: 0.3764706}
    - _Color: {r: 0.4901961, g: 0.60784316, b: 0.8745099, a: 1}
    - _DetailColor: {r: 1, g: 1, b: 1, a: 1}
    - _DissolveColor: {r: 1, g: 1, b: 1, a: 0.5}
    - _EmissionColor: {r: 0, g: 0, b: 0, a: 1}
    - _HighlightColor: {r: 1, g: 1, b: 1, a: 1}
    - _OutlineColor: {r: 0, g: 0, b: 0, a: 1}
    - _ReflectColor: {r: 1, g: 1, b: 1, a: 0.5}
    - _RimColor: {r: 1, g: 1, b: 1, a: 1}
    - _ShadowColor: {r: 0, g: 0, b: 0, a: 1}
    - _SpecColor: {r: 1, g: 1, b: 1, a: 0.5}
    - _TranslucentColor: {r: 1, g: 1, b: 1, a: 0.5}
  m_BuildTextureStacks: []
